{
  "basics": {
    "label": "Data analysis and visualization",
    "phone": "+33 7 66 24 73 07",
    "website": "https://rednegra.net/cv/",
    "summary": "",
    "location": {
      "address": "29, chemin de la Vignette",
      "postalCode": "08300",
      "city": "Sault-lès-Rethel",
      "countryCode": "FR",
      "region": ""
    },
    "profiles": [
      {
        "network": "Mastodon",
        "username": "@severo_bo@mamot.fr",
        "url": "https://mamot.fr/@severo_bo"
      },
      {
        "network": "Twitter",
        "username": "@severo_fr",
        "url": "https://twitter.com/severo_fr"
      },
      {
        "network": "GitHub",
        "username": "@severo",
        "url": "https://github.com/severo"
      },
      {
        "network": "ObservableHQ",
        "username": "@severo",
        "url": "https://beta.observablehq.com/@severo"
      }
    ],
    "name": "Sylvain LESAGE"
  },
  "work": [
    {
      "company": "3600.lat SRL",
      "position": "CEO",
      "startDate": "2018-08-01"
    },
    {
      "company": "Escuela Militar de Ingeniería",
      "startDate": "2018-05-01",
      "endDate": "2018-05-01"
    },
    {
      "startDate": "2017-10-01",
      "endDate": "2018-02-01"
    },
    {
      "company": "ADSIB",
      "startDate": "2015-09-01",
      "endDate": "2017-10-01"
    },
    {
      "startDate": "2014-05-01",
      "endDate": "2015-09-01"
    },
    {
      "startDate": "2015-03-01",
      "endDate": "2015-06-01"
    },
    {
      "startDate": "2013-05-01",
      "endDate": "2014-03-01"
    },
    {
      "startDate": "2013-06-01",
      "endDate": "2013-12-01"
    },
    {
      "startDate": "2011-12-01",
      "endDate": "2013-02-01"
    },
    {
      "startDate": "2012-10-01",
      "endDate": "2012-11-01"
    },
    {
      "startDate": "2011-10-01",
      "endDate": "2011-11-01"
    },
    {
      "startDate": "2010-09-01",
      "endDate": "2011-09-01"
    },
    {
      "startDate": "2009-11-01",
      "endDate": "2010-05-01"
    },
    {
      "startDate": "2009-08-01",
      "endDate": "2009-09-01"
    },
    {
      "startDate": "2007-10-01",
      "endDate": "2009-02-01"
    },
    {
      "startDate": "2007-08-01",
      "endDate": "2007-10-01"
    },
    {
      "startDate": "2003-10-01",
      "endDate": "2006-09-01"
    }
  ],
  "education": [
    {
      "institution": "Rennes I University, Rennes, France",
      "area": "Telecommunications and signal processing",
      "studyType": "PhD",
      "startDate": "2004-01-01",
      "endDate": "2007-01-01"
    },
    {
      "institution": "École Supérieure d'Électricité, Rennes, France",
      "area": "Signal processing",
      "studyType": "Engineering",
      "startDate": "2000-01-01",
      "endDate": "2003-01-01"
    },
    {
      "institution": "Metz University, Metz, France",
      "area": "Applied mathematics",
      "studyType": "Master in applied mathematics",
      "startDate": "2002-01-01",
      "endDate": "2003-01-01"
    }
  ],
  "publications": [
    {
      "name": "Shift-invariant dictionary learning for sparse representations: Extending K-SVD",
      "publisher": "Signal Processing Conference, 2008 16th European",
      "website": "http://ieeexplore.ieee.org/abstract/document/7080585/",
      "summary": "Shift-invariant dictionaries are generated by taking all the possible shifts of a few short patterns. They are helpful to represent long signals where the same pattern can appear several times at different positions. We present an algorithm that learns shift invariant dictionaries from long training signals. This algorithm is an extension of K-SVD. It alternates a sparse decomposition step and a dictionary update step. The update is more difficult in the shift-invariant case because of occurrences of the same pattern that overlap. We propose and evaluate an unbiased extension of the method used in K-SVD, i.e. a method able to exactly retrieve the original dictionary in a noiseless case.",
      "releaseDate": "2008-01-01"
    },
    {
      "name": "Apprentissage de dictionnaires structurés pour la modélisation parcimonieuse des signaux multicanaux",
      "publisher": "PhD - Traitement du signal et de l'image. Université Rennes 1, 2007",
      "website": "https://hal.archives-ouvertes.fr/tel-00564061/",
      "summary": "Les décompositions parcimonieuses décrivent un signal comme une combinaison d'un petit nombre de formes de base, appelées atomes. Le dictionnaire d'atomes, crucial pour l'efficacité de la décomposition, peut résulter d'un choix a priori (ondelettes, Gabor, ...) qui fixe la structure du dictionnaire, ou d'un apprentissage á partir d'exemples représentatifs du signal. Nous proposons ici un cadre hybride combinant des contraites structurelles et une approche par apprentissage. Les dictionnaires ainsi structurés apportent une meilleure adaptation aux propriétés du signal et permettent de traiter des volumes importants de données. Nous exposons les concepts et les outils qui étayent cette approche, notamment l'adaptation des algorithmes Matching Pursuit et K-SVD á des dictionnaires d'atomes constitués de motifs linéairement déformables, via une propriété d'adjonction. Nous présentons également des résultats de séparation de signaux monocanaux dans le cadre proposé.",
      "releaseDate": "2007-01-01"
    },
    {
      "name": "MoTIF: An Efficient Algorithm for Learning Translation Invariant Dictionaries",
      "publisher": "IEEE International Conference on Acoustics Speech and Signal Processing, ICASSP 2006, Toulouse, France, May 14-19, 2006",
      "website": "http://ieeexplore.ieee.org/abstract/document/1661411/",
      "summary": "The performance of approximation using redundant expansions rely on having dictionaries adapted to the signals. In natural high-dimensional data, the statistical dependencies are, most of the time, not obvious. Learning fundamental patterns is an alternative to analytical design of bases and is nowadays a popular problem in the field of approximation theory. In many situations, the basis elements are shift invariant, thus the learning should try to find the best matching filters. We present a new algorithm for iteratively learning generating functions that can be shifted at all positions in the signal to generate a highly redundant dictionary",
      "releaseDate": "2006-07-24"
    },
    {
      "name": "A survey of Sparse Component Analysis for blind source separation: principles, perspectives, and new challenges",
      "publisher": "ESANN'06 proceedings - 14th European Symposium on Artificial Neural Networks, Apr 2006, Bruges, Belgium",
      "website": "https://hal.inria.fr/inria-00544897/",
      "summary": "In this survey, we highlight the appealing features and challenges of Sparse Component Analysis (SCA) for blind source separation (BSS). SCA is a simple yet powerful framework to separate several sources from few sensors, even when the independence assumption is dropped. So far, SCA has been most successfully applied when the sources can be represented sparsely in a given basis, but many other potential uses of SCA remain unexplored. Among other challenging perspectives, we discuss how SCA could be used to exploit both the spatial diversity corresponding to the mixing process and the morphological diversity between sources to unmix even underdetermined convolutive mixtures. This raises several challenges, including the design of both provably good and numerically efficient algorithms for large-scale sparse approximation with overcomplete signal dictionaries.",
      "releaseDate": "2006-01-01"
    },
    {
      "name": "Under-Determined Source Separation: Comparison of Two Approaches Based on Sparse Decompositions",
      "publisher": "Independent Component Analysis and Blind Signal Separation. ICA 2006. Lecture Notes in Computer Science, vol 3889. Springer, Berlin, Heidelberg",
      "website": "https://link.springer.com/chapter/10.1007%2F11679363_79",
      "summary": "This paper focuses on under-determined source separation when the mixing parameters are known. The approach is based on a sparse decomposition of the mixture. In the proposed method, the mixture is decomposed with Matching Pursuit by introducing a new class of multi-channel dictionaries, where the atoms are given by a spatial direction and a waveform. The knowledge of the mixing matrix is directly integrated in the decomposition. Compared to the separation by multi-channel Matching Pursuit followed by a clustering, the new algorithm introduces less artifacts whereas the level of residual interferences is about the same. These two methods are compared to Bofill & Zibulevsky’s separation algorithm and DUET method. We also study the effect of smoothing the decompositions and the importance of the quality of the estimation of the mixing matrix.",
      "releaseDate": "2006-01-01"
    },
    {
      "name": "Séparation de sources dans le cas sous-déterminé : comparaison de deux approches basées sur des décompositions parcimonieuses",
      "publisher": "XXe colloque GRETSI (traitement du signal et des images), 6-9 septembre 2005, Sep 2005, Louvain-la-Neuve, Belgique. GRETSI, Groupe d'Etudes du Traitement du Signal et des Images, 2005",
      "website": "https://hal.inria.fr/inria-00564755/",
      "summary": "Cet article traite de la séparation de sources dans le cas sous-déterminé quand la matrice de mélange est connue. On se place dans le cadre des approches basées sur la décomposition parcimonieuse du mélange. Dans la nouvelle méthode proposée, on décompose le mélange par Matching Pursuit en introduisant une nouvelle classe de dictionnaires multi-canal, où les atomes sont caractérisés par une direction spatiale et une forme d'onde. La connaissance de la matrice de mélange est directement intégrée á la décomposition. Par rapport á la séparation par Matching Pursuit multi-canal suivie d'un clustering, le nouvel algorithme introduit moins d'artéfacts pour un niveau d'interférences résiduelles comparable. Nous comparons ces deux méthodes á l'algorithme de Bofill-Zibulevski et á DUET. Nous étudions également l'apport d'un lissage des décompositions et l'importance de la qualité de l'estimation de la matrice de mélange.",
      "releaseDate": "2005-09-09"
    },
    {
      "name": "Learning unions of orthonormal bases with thresholded singular value decomposition",
      "publisher": "Acoustics, Speech, and Signal Processing, 2005. Proceedings. (ICASSP '05), IEEE International Conference on Acoustics, Speech, and Signal Processing",
      "website": "http://ieeexplore.ieee.org/abstract/document/1416298/?reload=true",
      "summary": "We propose a new method to learn overcomplete dictionaries for sparse coding structured as unions of orthonormal bases. The interest of such a structure is manifold. Indeed, it seems that many signals or images can be modeled as the superimposition of several layers with sparse decompositions in as many bases. Moreover, in such dictionaries, the efficient block coordinate relaxation (BCR) algorithm can be used to compute sparse decompositions. We show that it is possible to design an iterative learning algorithm that produces a dictionary with the required structure. Each step is based on the coefficients estimation, using a variant of BCR, followed by the update of one chosen basis, using singular value decomposition. We assess experimentally how well the learning algorithm recovers dictionaries that may or may not have the required structure, and to what extent the noise level is a disturbing factor.",
      "releaseDate": "2005-05-09"
    },
    {
      "name": "Learning redundant dictionaries with translation invariance property: the MoTIF algorithm",
      "publisher": "R. Gribonval, L. Daudet, B. Torresani. SPARS'05 - Workshop on Signal Processing with Adaptive Sparse Structured Representations, 2005, Rennes, France. pp.1-3, 2005",
      "website": "https://hal.archives-ouvertes.fr/hal-00816804/",
      "summary": "Sparse approximation using redundant dictionaries is an efficient tool for many applications in the field of signal processing. The performances largely depend on the adaptation of the dictionary to the signal to decompose. As the statistical dependencies are most of the time not obvious in natural high- dimensional data, learning fundamental patterns is an alternative to analytical design of bases and has become a field of acute research. Most of the time, the underlying patterns of a class of signals can be found at any time, and in the design of a dictionary, this translation invariance property should be present. We present a new algorithm for learning short generating functions, each of them building a set of atoms corresponding to all its translations. The resulting dictionary is highly redundant and translation invariant.",
      "releaseDate": "2005-01-01"
    }
  ],
  "skills": [
    {
      "name": "Sistema de información geográfica"
    },
    {
      "name": "Aprendizaje automático"
    },
    {
      "name": "Desarrollo de software"
    },
    {
      "name": "Administración de servidores"
    },
    {
      "name": "Gestión de proyectos"
    },
    {
      "name": "Programación"
    },
    {
      "name": "Centro de datos"
    },
    {
      "name": "Servicios web"
    },
    {
      "name": "Procesamiento de señales"
    },
    {
      "name": "Investigación"
    },
    {
      "name": "Redacción de textos técnicos"
    },
    {
      "name": "Redacción de textos académicos"
    },
    {
      "name": "MySQL"
    },
    {
      "name": "Python"
    },
    {
      "name": "PostgreSQL"
    },
    {
      "name": "JavaScript"
    },
    {
      "name": "Java"
    },
    {
      "name": "Hojas de estilos en cascada (CSS)"
    },
    {
      "name": "PHP"
    },
    {
      "name": "HTML"
    },
    {
      "name": "C++"
    },
    {
      "name": "C"
    },
    {
      "name": "Servidores"
    },
    {
      "name": "Matlab"
    },
    {
      "name": "Servicios web de RESTful"
    },
    {
      "name": "Node.js"
    },
    {
      "name": "R"
    },
    {
      "name": "Git"
    },
    {
      "name": "Debian"
    },
    {
      "name": "Dirección"
    },
    {
      "name": "Redacción de políticas"
    },
    {
      "name": "Simulación numérica"
    },
    {
      "name": "D3.js"
    },
    {
      "name": "OpenLayers"
    },
    {
      "name": "GeoServer"
    },
    {
      "name": "PostGIS"
    },
    {
      "name": "Procesamiento digital de imágenes"
    },
    {
      "name": "Postfix"
    },
    {
      "name": "Gestión de DNS"
    },
    {
      "name": "Desarrollo de estándares"
    },
    {
      "name": "GeoNetwork"
    },
    {
      "name": "Vue.js"
    },
    {
      "name": "SPIP"
    },
    {
      "name": "Gobierno electrónico"
    },
    {
      "name": "Visualización de datos"
    },
    {
      "name": "MongoDB"
    },
    {
      "name": "Criptografía"
    },
    {
      "name": "Firmas digitales"
    },
    {
      "name": "Nombres de dominio"
    },
    {
      "name": "Negociación"
    }
  ],
  "languages": [
    {
      "language": "Spanish",
      "fluency": "Native or bilingual"
    },
    {
      "language": "French",
      "fluency": "Native or bilingual"
    },
    {
      "language": "English",
      "fluency": "Full professional"
    }
  ]
}
